EESchema Schematic File Version 4
EELAYER 30 0
EELAYER END
$Descr A4 11693 8268
encoding utf-8
Sheet 1 1
Title ""
Date ""
Rev ""
Comp ""
Comment1 ""
Comment2 ""
Comment3 ""
Comment4 ""
$EndDescr
$Comp
L MCU_Module:Arduino_UNO_R3 A?
U 1 1 5DDCECB2
P 1650 2700
F 0 "A?" H 1650 3881 50  0000 C CNN
F 1 "Arduino_UNO_R3" H 1650 3790 50  0000 C CNN
F 2 "Module:Arduino_UNO_R3" H 1650 2700 50  0001 C CIN
F 3 "https://www.arduino.cc/en/Main/arduinoBoardUno" H 1650 2700 50  0001 C CNN
	1    1650 2700
	-1   0    0    1   
$EndComp
$Comp
L power:+5V #PWR0101
U 1 1 5DDD8AF2
P 1000 4300
F 0 "#PWR0101" H 1000 4150 50  0001 C CNN
F 1 "+5V" V 1015 4428 50  0000 L CNN
F 2 "" H 1000 4300 50  0001 C CNN
F 3 "" H 1000 4300 50  0001 C CNN
	1    1000 4300
	0    -1   -1   0   
$EndComp
$Comp
L 74xx:74HC595 U?
U 1 1 5DDD97F2
P 3600 2400
F 0 "U?" H 3600 3181 50  0000 C CNN
F 1 "74HC595" H 3600 3090 50  0000 C CNN
F 2 "" H 3600 2400 50  0001 C CNN
F 3 "http://www.ti.com/lit/ds/symlink/sn74hc595.pdf" H 3600 2400 50  0001 C CNN
	1    3600 2400
	1    0    0    -1  
$EndComp
Wire Wire Line
	2150 2000 3200 2000
$Comp
L power:Earth #PWR0102
U 1 1 5DDDC7F3
P 1000 4500
F 0 "#PWR0102" H 1000 4250 50  0001 C CNN
F 1 "Earth" H 1000 4350 50  0001 C CNN
F 2 "" H 1000 4500 50  0001 C CNN
F 3 "~" H 1000 4500 50  0001 C CNN
	1    1000 4500
	0    1    1    0   
$EndComp
Wire Wire Line
	1000 4300 1750 4300
Wire Wire Line
	1750 4300 1750 3700
Wire Wire Line
	1750 1600 2500 1600
Wire Wire Line
	2550 1600 2550 2600
Wire Wire Line
	2550 4500 1000 4500
Wire Wire Line
	3600 3100 3600 3500
Wire Wire Line
	3600 3500 2550 3500
Connection ~ 2550 3500
Wire Wire Line
	1450 3700 1300 3700
Wire Wire Line
	950  3700 950  1350
Wire Wire Line
	3600 1350 3600 1800
Wire Wire Line
	2150 2100 3200 2100
Wire Wire Line
	3200 2100 3200 2200
Wire Wire Line
	3200 2600 2550 2600
Connection ~ 2550 2600
Wire Wire Line
	2550 2600 2550 3500
Wire Wire Line
	2150 2200 3050 2200
Wire Wire Line
	3050 2200 3050 2500
Wire Wire Line
	3050 2500 3200 2500
Wire Wire Line
	3200 2300 2800 2300
Wire Wire Line
	2800 2300 2800 1350
Connection ~ 2800 1350
Wire Wire Line
	2800 1350 3600 1350
Wire Wire Line
	5000 2000 5250 2000
Wire Wire Line
	5250 2000 5250 2100
Wire Wire Line
	5250 3500 3600 3500
Connection ~ 3600 3500
Wire Wire Line
	5000 2100 5250 2100
Connection ~ 5250 2100
Wire Wire Line
	5250 2100 5250 2200
Wire Wire Line
	5000 2200 5250 2200
Connection ~ 5250 2200
Wire Wire Line
	5000 2300 5250 2300
Wire Wire Line
	5250 2200 5250 2300
Connection ~ 5250 2300
Wire Wire Line
	5000 2400 5250 2400
Wire Wire Line
	5250 2300 5250 2400
Connection ~ 5250 2400
Wire Wire Line
	5250 2400 5250 2500
Wire Wire Line
	5000 2500 5250 2500
Connection ~ 5250 2500
Wire Wire Line
	5250 2500 5250 2600
Wire Wire Line
	5000 2600 5250 2600
Connection ~ 5250 2600
Wire Wire Line
	5250 2600 5250 2700
Wire Wire Line
	5000 2700 5250 2700
Connection ~ 5250 2700
Wire Wire Line
	5250 2700 5250 3500
$Comp
L Display_Character:SA15-11EWA U?
U 1 1 5DDF3217
P 5600 4150
F 0 "U?" H 5600 4817 50  0000 C CNN
F 1 "SA15-11EWA" H 5600 4726 50  0000 C CNN
F 2 "Display_7Segment:SA15-11xxx" H 5600 4100 50  0001 C CNN
F 3 "http://www.kingbrightusa.com/images/catalog/SPEC/SA15-11EWA.pdf" H 5600 4100 50  0001 C CNN
	1    5600 4150
	1    0    0    -1  
$EndComp
Wire Wire Line
	1300 3700 1300 4100
Wire Wire Line
	1300 4100 2950 4100
Wire Wire Line
	2950 4100 2950 3650
Wire Wire Line
	2950 3650 3600 3650
Connection ~ 1300 3700
Wire Wire Line
	1300 3700 950  3700
$Comp
L 74xx:74HC595 U?
U 1 1 5DDF7873
P 3600 4250
F 0 "U?" H 3600 5031 50  0000 C CNN
F 1 "74HC595" H 3600 4940 50  0000 C CNN
F 2 "" H 3600 4250 50  0001 C CNN
F 3 "http://www.ti.com/lit/ds/symlink/sn74hc595.pdf" H 3600 4250 50  0001 C CNN
	1    3600 4250
	1    0    0    -1  
$EndComp
Wire Wire Line
	2550 4950 2550 4500
Connection ~ 3600 4950
Wire Wire Line
	3600 4950 2550 4950
Connection ~ 2550 4500
Wire Wire Line
	2150 2300 2700 2300
Wire Wire Line
	2700 2300 2700 3850
Wire Wire Line
	2700 3850 3200 3850
Wire Wire Line
	2150 2400 2650 2400
Wire Wire Line
	2650 2400 2650 4050
Wire Wire Line
	2650 4050 3200 4050
Wire Wire Line
	2800 2300 2800 4150
Wire Wire Line
	2800 4150 3200 4150
Connection ~ 2800 2300
Wire Wire Line
	2150 2500 2600 2500
Wire Wire Line
	2600 2500 2600 4350
Wire Wire Line
	2600 4350 3200 4350
Wire Wire Line
	2550 3500 2550 4450
Wire Wire Line
	3200 4450 2550 4450
Connection ~ 2550 4450
Wire Wire Line
	2550 4450 2550 4500
$Comp
L Device:LED D?
U 1 1 5DDEDDAC
P 4850 2700
F 0 "D?" H 4843 2445 50  0001 C CNN
F 1 "LED" H 4843 2536 50  0001 C CNN
F 2 "" H 4850 2700 50  0001 C CNN
F 3 "~" H 4850 2700 50  0001 C CNN
	1    4850 2700
	-1   0    0    1   
$EndComp
$Comp
L Device:LED D?
U 1 1 5DDED7CE
P 4850 2600
F 0 "D?" H 4843 2345 50  0001 C CNN
F 1 "LED" H 4843 2436 50  0001 C CNN
F 2 "" H 4850 2600 50  0001 C CNN
F 3 "~" H 4850 2600 50  0001 C CNN
	1    4850 2600
	-1   0    0    1   
$EndComp
$Comp
L Device:LED D?
U 1 1 5DDED2B0
P 4850 2500
F 0 "D?" H 4843 2245 50  0001 C CNN
F 1 "LED" H 4843 2336 50  0001 C CNN
F 2 "" H 4850 2500 50  0001 C CNN
F 3 "~" H 4850 2500 50  0001 C CNN
	1    4850 2500
	-1   0    0    1   
$EndComp
$Comp
L Device:LED D?
U 1 1 5DDECDED
P 4850 2400
F 0 "D?" H 4843 2145 50  0001 C CNN
F 1 "LED" H 4843 2236 50  0001 C CNN
F 2 "" H 4850 2400 50  0001 C CNN
F 3 "~" H 4850 2400 50  0001 C CNN
	1    4850 2400
	-1   0    0    1   
$EndComp
$Comp
L Device:LED D?
U 1 1 5DDECA27
P 4850 2300
F 0 "D?" H 4843 2045 50  0001 C CNN
F 1 "LED" H 4843 2136 50  0001 C CNN
F 2 "" H 4850 2300 50  0001 C CNN
F 3 "~" H 4850 2300 50  0001 C CNN
	1    4850 2300
	-1   0    0    1   
$EndComp
$Comp
L Device:LED D?
U 1 1 5DDEC1A0
P 4850 2200
F 0 "D?" H 4843 1945 50  0001 C CNN
F 1 "LED" H 4843 2036 50  0001 C CNN
F 2 "" H 4850 2200 50  0001 C CNN
F 3 "~" H 4850 2200 50  0001 C CNN
	1    4850 2200
	-1   0    0    1   
$EndComp
$Comp
L Device:LED D?
U 1 1 5DDEB98F
P 4850 2100
F 0 "D?" H 4843 1845 50  0001 C CNN
F 1 "LED" H 4843 1936 50  0001 C CNN
F 2 "" H 4850 2100 50  0001 C CNN
F 3 "~" H 4850 2100 50  0001 C CNN
	1    4850 2100
	-1   0    0    1   
$EndComp
$Comp
L Device:LED D?
U 1 1 5DDE8EA5
P 4850 2000
F 0 "D?" H 4843 1745 50  0001 C CNN
F 1 "LED" H 4843 1836 50  0001 C CNN
F 2 "" H 4850 2000 50  0001 C CNN
F 3 "~" H 4850 2000 50  0001 C CNN
	1    4850 2000
	-1   0    0    1   
$EndComp
Wire Wire Line
	4000 2700 4400 2700
Wire Wire Line
	4000 2600 4400 2600
Wire Wire Line
	4000 2500 4400 2500
Wire Wire Line
	4000 2400 4400 2400
Wire Wire Line
	4000 2300 4400 2300
Wire Wire Line
	4000 2200 4400 2200
Wire Wire Line
	4000 2100 4400 2100
Wire Wire Line
	4000 2000 4400 2000
$Comp
L Device:R R?
U 1 1 5DDE685B
P 4550 2700
F 0 "R?" V 4343 2700 50  0001 C CNN
F 1 "220" V 4550 2700 50  0000 C CNN
F 2 "" V 4480 2700 50  0001 C CNN
F 3 "~" H 4550 2700 50  0001 C CNN
	1    4550 2700
	0    1    1    0   
$EndComp
$Comp
L Device:R R?
U 1 1 5DDE65BA
P 4550 2600
F 0 "R?" V 4343 2600 50  0001 C CNN
F 1 "220" V 4550 2600 50  0000 C CNN
F 2 "" V 4480 2600 50  0001 C CNN
F 3 "~" H 4550 2600 50  0001 C CNN
	1    4550 2600
	0    1    1    0   
$EndComp
$Comp
L Device:R R?
U 1 1 5DDE60E5
P 4550 2500
F 0 "R?" V 4343 2500 50  0001 C CNN
F 1 "220" V 4550 2500 50  0000 C CNN
F 2 "" V 4480 2500 50  0001 C CNN
F 3 "~" H 4550 2500 50  0001 C CNN
	1    4550 2500
	0    1    1    0   
$EndComp
$Comp
L Device:R R?
U 1 1 5DDE5DAC
P 4550 2400
F 0 "R?" V 4343 2400 50  0001 C CNN
F 1 "220" V 4550 2400 50  0000 C CNN
F 2 "" V 4480 2400 50  0001 C CNN
F 3 "~" H 4550 2400 50  0001 C CNN
	1    4550 2400
	0    1    1    0   
$EndComp
$Comp
L Device:R R?
U 1 1 5DDE5A43
P 4550 2300
F 0 "R?" V 4343 2300 50  0001 C CNN
F 1 "220" V 4550 2300 50  0000 C CNN
F 2 "" V 4480 2300 50  0001 C CNN
F 3 "~" H 4550 2300 50  0001 C CNN
	1    4550 2300
	0    1    1    0   
$EndComp
$Comp
L Device:R R?
U 1 1 5DDE5564
P 4550 2200
F 0 "R?" V 4343 2200 50  0001 C CNN
F 1 "220" V 4550 2200 50  0000 C CNN
F 2 "" V 4480 2200 50  0001 C CNN
F 3 "~" H 4550 2200 50  0001 C CNN
	1    4550 2200
	0    1    1    0   
$EndComp
$Comp
L Device:R R?
U 1 1 5DDE4856
P 4550 2100
F 0 "R?" V 4343 2100 50  0001 C CNN
F 1 "220" V 4550 2100 50  0000 C CNN
F 2 "" V 4480 2100 50  0001 C CNN
F 3 "~" H 4550 2100 50  0001 C CNN
	1    4550 2100
	0    1    1    0   
$EndComp
$Comp
L Device:R R?
U 1 1 5DDE17CC
P 4550 2000
F 0 "R?" V 4343 2000 50  0001 C CNN
F 1 "220" V 4550 2000 50  0000 C CNN
F 2 "" V 4480 2000 50  0001 C CNN
F 3 "~" H 4550 2000 50  0001 C CNN
	1    4550 2000
	0    1    1    0   
$EndComp
$Comp
L Device:R R?
U 1 1 5DE1D6B7
P 4550 4550
F 0 "R?" V 4343 4550 50  0001 C CNN
F 1 "220" V 4550 4550 50  0000 C CNN
F 2 "" V 4480 4550 50  0001 C CNN
F 3 "~" H 4550 4550 50  0001 C CNN
	1    4550 4550
	0    1    1    0   
$EndComp
$Comp
L Device:R R?
U 1 1 5DE1D6BD
P 4550 4450
F 0 "R?" V 4343 4450 50  0001 C CNN
F 1 "220" V 4550 4450 50  0000 C CNN
F 2 "" V 4480 4450 50  0001 C CNN
F 3 "~" H 4550 4450 50  0001 C CNN
	1    4550 4450
	0    1    1    0   
$EndComp
$Comp
L Device:R R?
U 1 1 5DE1D6C3
P 4550 4350
F 0 "R?" V 4343 4350 50  0001 C CNN
F 1 "220" V 4550 4350 50  0000 C CNN
F 2 "" V 4480 4350 50  0001 C CNN
F 3 "~" H 4550 4350 50  0001 C CNN
	1    4550 4350
	0    1    1    0   
$EndComp
$Comp
L Device:R R?
U 1 1 5DE1D6C9
P 4550 4250
F 0 "R?" V 4343 4250 50  0001 C CNN
F 1 "220" V 4550 4250 50  0000 C CNN
F 2 "" V 4480 4250 50  0001 C CNN
F 3 "~" H 4550 4250 50  0001 C CNN
	1    4550 4250
	0    1    1    0   
$EndComp
$Comp
L Device:R R?
U 1 1 5DE1D6CF
P 4550 4150
F 0 "R?" V 4343 4150 50  0001 C CNN
F 1 "220" V 4550 4150 50  0000 C CNN
F 2 "" V 4480 4150 50  0001 C CNN
F 3 "~" H 4550 4150 50  0001 C CNN
	1    4550 4150
	0    1    1    0   
$EndComp
$Comp
L Device:R R?
U 1 1 5DE1D6D5
P 4550 4050
F 0 "R?" V 4343 4050 50  0001 C CNN
F 1 "220" V 4550 4050 50  0000 C CNN
F 2 "" V 4480 4050 50  0001 C CNN
F 3 "~" H 4550 4050 50  0001 C CNN
	1    4550 4050
	0    1    1    0   
$EndComp
$Comp
L Device:R R?
U 1 1 5DE1D6DB
P 4550 3950
F 0 "R?" V 4343 3950 50  0001 C CNN
F 1 "220" V 4550 3950 50  0000 C CNN
F 2 "" V 4480 3950 50  0001 C CNN
F 3 "~" H 4550 3950 50  0001 C CNN
	1    4550 3950
	0    1    1    0   
$EndComp
$Comp
L Device:R R?
U 1 1 5DE1D6E1
P 4550 3850
F 0 "R?" V 4343 3850 50  0001 C CNN
F 1 "220" V 4550 3850 50  0000 C CNN
F 2 "" V 4480 3850 50  0001 C CNN
F 3 "~" H 4550 3850 50  0001 C CNN
	1    4550 3850
	0    1    1    0   
$EndComp
Wire Wire Line
	4000 3850 4400 3850
Wire Wire Line
	4000 3950 4400 3950
Wire Wire Line
	4000 4050 4400 4050
Wire Wire Line
	4000 4150 4400 4150
Wire Wire Line
	4000 4250 4400 4250
Wire Wire Line
	4000 4350 4400 4350
Wire Wire Line
	4000 4450 4400 4450
Wire Wire Line
	4000 4550 4400 4550
Wire Wire Line
	4700 3850 5300 3850
Wire Wire Line
	4700 3950 5300 3950
Wire Wire Line
	4700 4050 5300 4050
Wire Wire Line
	4700 4150 5300 4150
Wire Wire Line
	4700 4250 5300 4250
Wire Wire Line
	4700 4350 5300 4350
Wire Wire Line
	4700 4450 5300 4450
Wire Wire Line
	4700 4550 5300 4550
Wire Wire Line
	6000 4450 6000 4550
Wire Wire Line
	5900 4450 6000 4450
Wire Wire Line
	5900 4550 6000 4550
Wire Wire Line
	3600 4950 6000 4950
Connection ~ 6000 4550
Wire Wire Line
	6000 4550 6000 4950
$Comp
L Device:C C1
U 1 1 5DEE44C1
P 1000 1000
F 0 "C1" H 1115 1046 50  0000 L CNN
F 1 "0.1uf" H 1115 955 50  0000 L CNN
F 2 "" H 1038 850 50  0001 C CNN
F 3 "~" H 1000 1000 50  0001 C CNN
	1    1000 1000
	1    0    0    -1  
$EndComp
$Comp
L Device:C C2
U 1 1 5DEE58A6
P 1550 1000
F 0 "C2" H 1665 1046 50  0000 L CNN
F 1 "0.1uf" H 1665 955 50  0000 L CNN
F 2 "" H 1588 850 50  0001 C CNN
F 3 "~" H 1550 1000 50  0001 C CNN
	1    1550 1000
	1    0    0    -1  
$EndComp
$Comp
L Device:CP C3
U 1 1 5DEE60DE
P 2050 1000
F 0 "C3" H 1932 954 50  0000 R CNN
F 1 "10uf" H 1932 1045 50  0000 R CNN
F 2 "" H 2088 850 50  0001 C CNN
F 3 "~" H 2050 1000 50  0001 C CNN
	1    2050 1000
	-1   0    0    1   
$EndComp
Wire Wire Line
	2500 1600 2500 700 
Wire Wire Line
	2500 700  2050 700 
Connection ~ 2500 1600
Wire Wire Line
	2500 1600 2550 1600
Wire Wire Line
	2050 850  2050 700 
Connection ~ 2050 700 
Wire Wire Line
	2050 1350 2050 1150
Connection ~ 2050 1350
Wire Wire Line
	2050 1350 2800 1350
Wire Wire Line
	950  1350 1000 1350
Wire Wire Line
	1550 1350 1550 1150
Connection ~ 1550 1350
Wire Wire Line
	1550 1350 2050 1350
Wire Wire Line
	1550 850  1550 700 
Connection ~ 1550 700 
Wire Wire Line
	1550 700  2050 700 
Wire Wire Line
	1000 1350 1000 1150
Connection ~ 1000 1350
Wire Wire Line
	1000 1350 1550 1350
Wire Wire Line
	1000 850  1000 700 
Wire Wire Line
	1000 700  1550 700 
$EndSCHEMATC
